<?xml version="1.0" encoding="UTF-8"?>
<svg xmlns="http://www.w3.org/2000/svg" xmlns:xlink="http://www.w3.org/1999/xlink" width="251pt" height="40pt" viewBox="0 0 251 40" version="1.1">
<g id="surface1">
<path style=" stroke:none;fill-rule:evenodd;fill:rgb(87.058824%,85.882353%,84.313725%);fill-opacity:1;" d="M 199.253906 7.960938 C 199.414062 8.273438 199.582031 8.546875 199.691406 8.839844 C 199.828125 9.207031 199.949219 9.585938 200 9.96875 C 200.035156 10.226562 199.914062 10.492188 199.746094 10.710938 C 199.191406 11.453125 198.457031 11.992188 197.726562 12.53125 C 197.164062 12.953125 196.535156 13.234375 195.902344 13.507812 C 195.105469 13.847656 194.296875 14.15625 193.496094 14.476562 C 192.945312 14.695312 192.378906 14.878906 191.84375 15.132812 C 191.378906 15.351562 190.945312 15.640625 190.496094 15.898438 C 189.574219 16.425781 188.632812 16.910156 187.65625 17.335938 C 186.753906 17.734375 185.894531 18.226562 185.011719 18.671875 C 184.613281 18.871094 184.21875 19.078125 183.808594 19.242188 C 181.742188 20.09375 179.59375 20.660156 177.402344 21.070312 C 176.625 21.214844 175.847656 21.359375 175.074219 21.523438 C 173.613281 21.828125 172.128906 21.878906 170.648438 22.007812 C 167.878906 22.257812 165.117188 22.132812 162.351562 21.875 C 160.136719 21.664062 158.019531 21.09375 155.910156 20.464844 C 154.445312 20.027344 153.019531 19.457031 151.574219 18.945312 C 151.25 18.828125 150.921875 18.710938 150.59375 18.601562 C 148.824219 18.015625 147.15625 17.21875 145.578125 16.234375 C 144.859375 15.785156 144.085938 15.46875 143.320312 15.125 C 141.5625 14.335938 139.804688 13.539062 138.167969 12.515625 C 137.792969 12.28125 137.449219 12 137.113281 11.714844 C 136.773438 11.429688 136.460938 11.109375 136.132812 10.8125 C 135.796875 10.503906 135.644531 10.082031 135.472656 9.683594 C 135.375 9.460938 135.542969 9.207031 135.789062 9.113281 C 136.710938 8.757812 136.867188 8.71875 137.796875 8.816406 C 138.082031 8.847656 138.390625 8.945312 138.621094 9.105469 C 138.972656 9.351562 139.375 9.46875 139.753906 9.644531 C 140.132812 9.820312 140.519531 9.976562 140.902344 10.140625 C 140.972656 10.171875 141.042969 10.210938 141.113281 10.21875 C 141.730469 10.25 142.203125 10.625 142.738281 10.859375 C 142.851562 10.910156 142.96875 10.96875 143.050781 11.054688 C 143.402344 11.421875 143.871094 11.585938 144.316406 11.800781 C 145.289062 12.28125 146.300781 12.648438 147.335938 12.976562 C 147.710938 13.09375 148.0625 13.28125 148.414062 13.46875 C 149.332031 13.949219 150.238281 14.449219 151.230469 14.777344 C 151.417969 14.835938 151.589844 14.945312 151.757812 15.046875 C 152.140625 15.28125 152.554688 15.4375 153 15.515625 C 153.074219 15.527344 153.152344 15.523438 153.21875 15.550781 C 154.140625 15.976562 155.1875 16.019531 156.085938 16.507812 C 156.316406 16.632812 156.546875 16.695312 156.792969 16.570312 C 156.992188 16.472656 157.1875 16.507812 157.355469 16.625 C 157.855469 16.957031 158.390625 17.039062 158.984375 16.96875 C 159.210938 16.945312 159.460938 17.058594 159.691406 17.140625 C 160.089844 17.273438 160.46875 17.46875 160.90625 17.4375 C 161.695312 17.75 162.53125 17.828125 163.363281 17.941406 C 163.875 18.007812 164.371094 18.203125 164.898438 18.085938 C 165.792969 18.242188 166.730469 18.121094 167.597656 18.488281 C 168.285156 18.535156 168.976562 18.65625 169.65625 18.617188 C 170.839844 18.554688 172.015625 18.398438 173.195312 18.273438 C 173.386719 18.253906 173.59375 18.226562 173.773438 18.148438 C 174.375 17.894531 175.015625 17.863281 175.65625 17.796875 C 176.046875 17.75 176.441406 17.699219 176.824219 17.621094 C 177.648438 17.453125 178.46875 17.265625 179.285156 17.082031 C 179.382812 17.0625 179.488281 17.054688 179.574219 17.011719 C 180.390625 16.585938 181.28125 16.371094 182.144531 16.070312 C 183.03125 15.765625 183.902344 15.425781 184.8125 15.179688 C 185.769531 14.921875 186.667969 14.5 187.539062 14.039062 C 188.414062 13.570312 189.277344 13.09375 190.136719 12.613281 C 190.609375 12.347656 191.074219 12.0625 191.535156 11.773438 C 192.308594 11.289062 193.066406 10.773438 193.84375 10.304688 C 194.859375 9.6875 195.859375 9.050781 196.8125 8.347656 C 197.097656 8.140625 197.480469 8.023438 197.835938 7.945312 C 198.289062 7.847656 198.761719 7.734375 199.253906 7.960938 Z M 169.921875 26.34375 C 170.023438 26.484375 170.125 26.625 170.234375 26.757812 C 170.578125 27.210938 170.710938 27.703125 170.597656 28.28125 C 170.519531 28.6875 170.488281 29.117188 170.527344 29.527344 C 170.59375 30.257812 170.460938 30.960938 170.265625 31.640625 C 169.894531 32.9375 169.445312 34.214844 168.859375 35.4375 C 168.707031 35.746094 168.527344 36.039062 168.355469 36.335938 C 168.269531 36.492188 168.136719 36.617188 168.082031 36.777344 C 167.804688 37.589844 167.210938 38.1875 166.691406 38.839844 C 166.503906 39.074219 166.261719 39.226562 165.925781 39.203125 C 165.707031 39.1875 165.472656 39.179688 165.265625 39.242188 C 164.394531 39.492188 163.804688 39.023438 163.21875 38.507812 C 163.203125 38.492188 163.175781 38.480469 163.164062 38.457031 C 162.832031 37.859375 162.488281 37.257812 162.371094 36.570312 C 162.355469 36.457031 162.371094 36.3125 162.429688 36.214844 C 162.730469 35.65625 162.722656 35.023438 162.835938 34.425781 C 162.882812 34.179688 162.914062 33.953125 163.046875 33.734375 C 163.203125 33.484375 163.273438 33.214844 163.289062 32.90625 C 163.308594 32.492188 163.40625 32.078125 163.691406 31.742188 C 163.765625 31.648438 163.832031 31.53125 163.863281 31.421875 C 163.992188 30.921875 164.132812 30.425781 164.222656 29.921875 C 164.335938 29.25 164.605469 28.664062 165.011719 28.121094 C 165.1875 27.886719 165.351562 27.632812 165.46875 27.367188 C 165.789062 26.648438 166.296875 26.078125 166.957031 25.679688 C 167.308594 25.464844 167.730469 25.359375 168.132812 25.238281 C 168.257812 25.203125 168.425781 25.253906 168.5625 25.296875 C 168.726562 25.351562 168.871094 25.46875 169.035156 25.5 C 169.277344 25.546875 169.421875 25.695312 169.550781 25.882812 C 169.660156 26.046875 169.785156 26.203125 169.902344 26.359375 Z M 184.140625 24.792969 C 184.613281 25.34375 184.695312 26.007812 184.554688 26.671875 C 184.347656 27.625 184.128906 28.578125 184.027344 29.554688 C 184.023438 29.632812 184.011719 29.703125 183.988281 29.773438 C 183.726562 30.5625 183.464844 31.355469 183.199219 32.148438 C 183.113281 32.40625 183.007812 32.65625 182.949219 32.917969 C 182.660156 34.234375 182.023438 35.390625 181.308594 36.515625 C 181.171875 36.734375 180.996094 36.84375 180.753906 36.78125 C 180.40625 36.695312 180.066406 36.75 179.726562 36.8125 C 178.6875 36.996094 177.289062 36.339844 176.984375 35.292969 C 176.429688 34.421875 176.730469 33.546875 177.003906 32.679688 C 177.191406 32.074219 177.417969 31.476562 177.632812 30.878906 C 177.699219 30.695312 177.78125 30.515625 177.867188 30.339844 C 178.511719 29.066406 179.078125 27.765625 179.410156 26.371094 C 179.535156 25.851562 179.707031 25.339844 179.863281 24.828125 C 179.976562 24.445312 180.183594 24.164062 180.621094 24.132812 C 180.644531 24.132812 180.671875 24.117188 180.691406 24.117188 C 181.09375 24.125 181.421875 23.824219 181.84375 23.898438 C 182.203125 23.957031 182.5625 24.03125 182.9375 24.039062 C 183.449219 24.046875 183.753906 24.285156 184.140625 24.792969 Z M 149.652344 34.925781 C 149.160156 34.882812 148.625 34.84375 148.089844 34.789062 C 147.695312 34.75 147.308594 34.664062 146.917969 34.628906 C 146.296875 34.578125 145.984375 34.132812 145.671875 33.695312 C 145.625 33.617188 145.621094 33.5 145.636719 33.40625 C 145.71875 32.921875 145.757812 32.421875 145.921875 31.964844 C 146.148438 31.347656 146.4375 30.742188 146.773438 30.171875 C 147.828125 28.367188 148.96875 26.617188 150.210938 24.933594 C 150.429688 24.640625 150.636719 24.339844 150.742188 23.972656 C 150.832031 23.65625 151.050781 23.449219 151.402344 23.335938 C 151.796875 23.210938 152.179688 23.03125 152.496094 22.738281 C 152.65625 22.589844 152.863281 22.570312 153.054688 22.617188 C 153.679688 22.769531 154.199219 23.109375 154.511719 23.664062 C 154.707031 24.007812 154.78125 24.414062 154.65625 24.804688 C 154.5 25.285156 154.507812 25.769531 154.472656 26.257812 C 154.3125 28.328125 153.757812 30.25 152.472656 31.9375 C 152.039062 32.503906 151.617188 33.078125 151.09375 33.570312 C 150.84375 33.804688 150.585938 34.03125 150.335938 34.265625 C 150.121094 34.46875 149.910156 34.671875 149.652344 34.925781 Z M 196.035156 16.128906 C 196.171875 16.132812 196.296875 16.164062 196.417969 16.140625 C 196.855469 16.058594 197.183594 16.132812 197.375 16.601562 C 197.449219 16.789062 197.660156 16.929688 197.824219 17.078125 C 198.191406 17.410156 198.476562 17.796875 198.765625 18.195312 C 199.777344 19.578125 200.207031 21.140625 200.410156 22.792969 C 200.417969 22.867188 200.417969 22.941406 200.433594 23.015625 C 200.648438 24.148438 200.339844 25.195312 199.957031 26.25 C 199.695312 26.972656 199.34375 27.640625 198.9375 28.28125 C 198.832031 28.445312 198.714844 28.601562 198.621094 28.734375 C 197.964844 28.710938 197.351562 28.652344 196.734375 28.675781 C 196.441406 28.6875 196.203125 28.617188 195.960938 28.492188 C 195.789062 28.398438 195.625 28.285156 195.449219 28.199219 C 195.132812 28.046875 194.957031 27.796875 194.875 27.46875 C 194.773438 27.0625 194.648438 26.671875 194.441406 26.300781 C 194.371094 26.179688 194.359375 26.015625 194.363281 25.875 C 194.367188 25.382812 194.332031 24.898438 194.253906 24.40625 C 194.195312 24.019531 194.210938 23.628906 194.304688 23.242188 C 194.421875 22.761719 194.535156 22.28125 194.625 21.800781 C 194.691406 21.441406 194.757812 21.074219 194.757812 20.710938 C 194.753906 20.335938 194.800781 19.980469 194.898438 19.617188 C 194.992188 19.265625 195.117188 18.90625 195.132812 18.546875 C 195.152344 18.140625 195.214844 17.734375 195.199219 17.328125 C 195.191406 17.058594 195.273438 16.859375 195.476562 16.6875 C 195.660156 16.527344 195.820312 16.34375 196.035156 16.128906 Z M 178.152344 6.539062 C 178.714844 6.140625 179.183594 5.828125 179.632812 5.484375 C 180.519531 4.796875 181.519531 4.339844 182.597656 4.046875 C 183.050781 3.929688 183.519531 3.929688 183.988281 4.023438 C 185.054688 4.238281 186.089844 4.570312 187.144531 4.804688 C 187.921875 4.984375 188.570312 5.335938 189.1875 5.785156 C 189.4375 5.964844 189.597656 6.191406 189.710938 6.480469 C 189.898438 6.957031 190.144531 7.414062 190.34375 7.882812 C 190.542969 8.367188 190.433594 8.617188 190.003906 8.851562 C 188.585938 9.644531 187.050781 10.085938 185.472656 10.40625 C 184.09375 10.6875 182.765625 10.523438 181.464844 10.023438 C 180.984375 9.835938 180.503906 9.640625 180.042969 9.402344 C 179.300781 9.019531 178.828125 8.335938 178.289062 7.734375 C 177.964844 7.375 178.007812 6.914062 178.152344 6.539062 Z M 174.328125 14.453125 C 174.035156 15.023438 174.335938 15.75 173.78125 16.28125 C 173.402344 16.398438 172.996094 16.351562 172.597656 16.1875 C 171.992188 15.9375 171.394531 15.664062 170.820312 15.335938 C 170.523438 15.167969 170.203125 15.03125 169.886719 14.886719 C 169.308594 14.625 168.6875 14.445312 168.203125 13.992188 C 168.15625 13.945312 168.078125 13.921875 168.007812 13.898438 C 167.289062 13.648438 166.71875 13.191406 166.171875 12.683594 C 165.6875 12.234375 165.222656 11.765625 164.652344 11.398438 C 164.394531 11.234375 164.207031 10.953125 164.007812 10.703125 C 163.433594 9.992188 162.992188 9.195312 162.617188 8.367188 C 162.429688 7.945312 162.445312 7.5 162.488281 7.0625 C 162.515625 6.765625 162.664062 6.515625 162.964844 6.367188 C 163.441406 6.117188 163.933594 5.980469 164.460938 6.109375 C 165.277344 6.320312 166.054688 6.609375 166.726562 7.148438 C 167.222656 7.542969 167.761719 7.882812 168.285156 8.25 C 168.773438 8.585938 169.21875 8.96875 169.617188 9.410156 C 169.816406 9.625 170.015625 9.851562 170.253906 10.023438 C 171.082031 10.613281 171.789062 11.320312 172.417969 12.117188 C 172.671875 12.445312 173 12.71875 173.265625 13.042969 C 173.636719 13.5 173.976562 13.984375 174.328125 14.453125 Z M 143.753906 17.699219 C 144.066406 18.222656 144.277344 18.789062 144.363281 19.410156 C 144.273438 19.640625 144.113281 19.789062 143.859375 19.734375 C 143.613281 19.675781 143.417969 19.785156 143.226562 19.878906 C 142.277344 20.359375 141.335938 20.847656 140.390625 21.328125 C 139.648438 21.714844 138.90625 22.109375 138.089844 22.339844 C 137.238281 22.585938 136.378906 22.820312 135.574219 23.214844 C 135.238281 23.378906 134.859375 23.40625 134.488281 23.390625 C 133.996094 23.371094 133.503906 23.347656 133.011719 23.316406 C 132.515625 23.285156 132.027344 23.25 131.535156 23.191406 C 131.15625 23.148438 130.828125 22.96875 130.53125 22.742188 C 130.175781 22.46875 130.128906 22.15625 130.378906 21.78125 C 130.472656 21.640625 130.585938 21.507812 130.707031 21.390625 C 131.207031 20.914062 131.757812 20.507812 132.332031 20.132812 C 132.871094 19.777344 133.367188 19.367188 133.910156 19.03125 C 134.828125 18.453125 135.742188 17.867188 136.816406 17.59375 C 137.492188 17.207031 138.234375 17.230469 138.980469 17.285156 C 139.394531 17.316406 139.816406 17.34375 140.234375 17.351562 C 140.730469 17.359375 141.222656 17.363281 141.714844 17.339844 C 142.1875 17.316406 142.648438 17.335938 143.097656 17.515625 C 143.300781 17.59375 143.519531 17.636719 143.753906 17.699219 Z M 145.195312 1.117188 C 145.773438 0.632812 146.414062 0.710938 147.015625 0.6875 C 147.234375 0.683594 147.476562 0.851562 147.679688 0.988281 C 148.445312 1.492188 149.140625 2.078125 149.734375 2.78125 C 149.832031 2.890625 149.925781 3.007812 149.992188 3.140625 C 150.632812 4.414062 151.261719 5.695312 151.6875 7.0625 C 151.886719 7.699219 151.96875 8.359375 151.996094 9.023438 C 152.011719 9.445312 151.910156 9.851562 151.738281 10.296875 C 151.453125 10.40625 151.140625 10.523438 150.859375 10.628906 C 150.273438 10.292969 149.695312 10.070312 149.242188 9.632812 C 149.226562 9.617188 149.207031 9.601562 149.1875 9.59375 C 148.058594 9.15625 147.523438 8.171875 146.980469 7.207031 C 146.589844 6.523438 146.195312 5.835938 145.878906 5.121094 C 145.566406 4.40625 145.359375 3.640625 145.199219 2.871094 C 145.078125 2.28125 145.070312 1.707031 145.195312 1.117188 Z M 145.195312 1.117188 "/>
<path style=" stroke:none;fill-rule:evenodd;fill:rgb(87.058824%,85.882353%,84.313725%);fill-opacity:1;" d="M 96.992188 22.1875 C 97.03125 21.835938 96.804688 21.640625 96.539062 21.46875 C 96.382812 21.371094 96.175781 21.328125 96.140625 21.09375 C 96.136719 21.078125 96 21.085938 95.894531 21.078125 C 95.707031 20.707031 95.304688 20.515625 94.988281 20.234375 C 94.855469 20.117188 94.648438 20.078125 94.472656 20.007812 C 94.429688 19.789062 94.203125 19.765625 94.070312 19.640625 C 94.046875 19.621094 94.011719 19.597656 93.984375 19.597656 C 93.667969 19.585938 93.46875 19.367188 93.246094 19.195312 C 92.988281 19.003906 92.71875 18.839844 92.433594 18.691406 C 91.914062 18.414062 91.398438 18.132812 90.886719 17.84375 C 90.726562 17.75 90.558594 17.722656 90.382812 17.714844 C 90.148438 17.703125 90.019531 17.804688 89.988281 18.039062 C 89.976562 18.164062 89.980469 18.292969 90.003906 18.414062 C 90.070312 18.75 90.238281 19.070312 90.226562 19.425781 C 90.222656 19.460938 90.289062 19.492188 90.320312 19.527344 L 90.328125 19.523438 C 90.386719 19.738281 90.449219 19.945312 90.714844 19.992188 C 90.730469 19.992188 90.75 20.007812 90.753906 20.015625 C 90.785156 20.359375 91.230469 20.429688 91.261719 20.769531 C 91.441406 20.949219 91.597656 21.171875 91.804688 21.304688 C 92.203125 21.554688 92.539062 21.875 92.878906 22.1875 C 93.28125 22.558594 93.75 22.832031 94.238281 23.074219 C 94.441406 23.171875 94.632812 23.289062 94.824219 23.40625 C 95.328125 23.722656 95.882812 23.9375 96.441406 24.132812 C 97.019531 24.339844 97.5625 24.601562 98.074219 24.929688 C 98.203125 25.011719 98.292969 25.179688 98.429688 25.226562 C 98.570312 25.273438 98.734375 25.25 98.886719 25.324219 C 99.160156 25.460938 99.476562 25.53125 99.710938 25.710938 C 100 25.921875 100.351562 26.066406 100.570312 26.378906 C 100.648438 26.492188 100.777344 26.585938 100.902344 26.648438 C 101.175781 26.78125 101.328125 27.085938 101.644531 27.160156 C 101.667969 27.164062 101.691406 27.199219 101.707031 27.226562 C 101.890625 27.503906 102.085938 27.773438 102.242188 28.066406 C 102.371094 28.296875 102.507812 28.523438 102.582031 28.789062 C 102.660156 29.070312 102.929688 29.234375 103.085938 29.472656 C 103.140625 29.546875 103.207031 29.601562 103.21875 29.703125 C 103.253906 29.972656 103.300781 30.242188 103.34375 30.507812 C 103.363281 30.597656 103.371094 30.695312 103.414062 30.777344 C 103.5625 31.050781 103.515625 31.335938 103.480469 31.617188 C 103.464844 31.742188 103.417969 31.859375 103.296875 31.9375 C 103.257812 31.964844 103.222656 32.066406 103.246094 32.105469 C 103.339844 32.28125 103.246094 32.417969 103.148438 32.539062 C 103 32.726562 102.839844 32.898438 102.738281 33.117188 C 102.695312 33.21875 102.605469 33.300781 102.523438 33.375 C 102.304688 33.5625 102.085938 33.746094 101.863281 33.929688 C 101.816406 33.96875 101.757812 34.003906 101.699219 34.027344 C 101.414062 34.136719 101.148438 34.277344 100.910156 34.46875 C 100.863281 34.507812 100.796875 34.535156 100.734375 34.542969 C 100.5625 34.566406 100.449219 34.65625 100.351562 34.796875 C 100.25 34.945312 100.09375 35.015625 99.910156 35.046875 C 99.597656 35.101562 99.296875 35.21875 98.960938 35.136719 C 98.828125 35.105469 98.675781 35.140625 98.535156 35.148438 C 97.78125 35.191406 97.035156 35.1875 96.289062 35.039062 C 96.148438 35.015625 96 35.011719 95.859375 35.023438 C 95.222656 35.085938 94.585938 35.15625 93.953125 35 C 93.621094 35.046875 93.335938 34.859375 93.019531 34.804688 C 92.722656 34.757812 92.4375 34.632812 92.148438 34.546875 C 92.085938 34.523438 92.023438 34.519531 91.960938 34.523438 C 91.546875 34.554688 91.347656 34.515625 90.992188 34.328125 C 90.734375 34.1875 90.449219 34.148438 90.160156 34.128906 C 89.984375 34.117188 89.808594 34.125 89.671875 34.125 C 89.523438 34 89.632812 33.921875 89.652344 33.839844 C 89.628906 33.820312 89.609375 33.796875 89.585938 33.792969 C 89.410156 33.773438 89.234375 33.761719 89.042969 33.742188 C 88.988281 33.5625 88.9375 33.390625 88.890625 33.226562 C 88.546875 33.027344 88.101562 33.25 87.800781 32.929688 C 87.835938 32.867188 87.863281 32.8125 87.910156 32.734375 C 87.808594 32.691406 87.710938 32.632812 87.609375 32.617188 C 87.308594 32.574219 87.132812 32.375 87.007812 32.128906 C 86.960938 32.039062 86.976562 31.921875 86.957031 31.792969 C 86.714844 31.75 86.535156 31.601562 86.382812 31.414062 C 86.289062 31.304688 86.183594 31.199219 86.066406 31.125 C 85.90625 31.023438 85.804688 30.894531 85.722656 30.734375 C 85.640625 30.585938 85.550781 30.433594 85.367188 30.367188 C 85.296875 30.339844 85.234375 30.273438 85.195312 30.207031 C 84.894531 29.730469 84.476562 29.363281 84.074219 28.976562 C 83.691406 28.617188 83.367188 28.199219 83.078125 27.757812 C 82.945312 27.5625 82.84375 27.34375 82.648438 27.195312 C 82.601562 27.15625 82.566406 27.097656 82.535156 27.046875 C 82.292969 26.65625 82.050781 26.261719 81.804688 25.871094 C 81.78125 25.828125 81.769531 25.773438 81.734375 25.75 C 81.320312 25.429688 81.175781 24.945312 80.972656 24.5 C 80.945312 24.445312 80.9375 24.351562 80.898438 24.335938 C 80.664062 24.242188 80.636719 24.039062 80.597656 23.835938 C 80.585938 23.765625 80.546875 23.679688 80.492188 23.632812 C 80.203125 23.375 80.125 23.007812 79.980469 22.671875 C 79.945312 22.601562 79.953125 22.515625 79.910156 22.445312 C 79.785156 22.25 79.742188 22.023438 79.59375 21.828125 C 79.394531 21.566406 79.273438 21.238281 79.3125 20.890625 C 79.328125 20.75 79.289062 20.640625 79.21875 20.53125 C 79.117188 20.382812 79.0625 20.222656 79.066406 20.039062 C 79.070312 19.960938 79.050781 19.878906 79.019531 19.8125 C 78.695312 19.199219 78.5625 18.53125 78.445312 17.859375 C 78.398438 17.601562 78.316406 17.347656 78.238281 17.09375 C 78.132812 16.75 78.003906 16.40625 77.914062 16.054688 C 77.875 15.917969 77.875 15.777344 77.78125 15.65625 C 77.746094 15.609375 77.734375 15.53125 77.738281 15.472656 C 77.765625 15.039062 77.585938 14.640625 77.480469 14.234375 C 77.414062 13.988281 77.371094 13.742188 77.320312 13.492188 C 77.199219 12.882812 77.074219 12.273438 76.972656 11.664062 C 76.90625 11.289062 76.875 10.910156 76.847656 10.53125 C 76.828125 10.304688 76.777344 10.09375 76.652344 9.898438 C 76.542969 9.726562 76.4375 9.539062 76.496094 9.320312 C 76.59375 9.195312 76.691406 9.070312 76.808594 8.929688 C 77.351562 9.007812 77.90625 8.953125 78.457031 8.835938 C 78.875 8.742188 79.292969 8.632812 79.703125 8.5 C 80.023438 8.398438 80.335938 8.277344 80.664062 8.1875 C 81.03125 8.085938 81.378906 7.90625 81.738281 7.773438 C 82.292969 7.566406 82.828125 7.3125 83.386719 7.109375 C 83.746094 6.984375 84.082031 6.78125 84.429688 6.617188 C 84.515625 6.570312 84.59375 6.507812 84.683594 6.484375 C 85.464844 6.273438 86.152344 5.839844 86.925781 5.609375 C 87.105469 5.554688 87.265625 5.429688 87.4375 5.34375 C 88.269531 4.929688 89.125 4.554688 90.011719 4.28125 C 90.238281 4.207031 90.480469 4.179688 90.714844 4.132812 C 91.4375 3.988281 92.160156 3.820312 92.890625 3.699219 C 93.539062 3.59375 94.199219 3.539062 94.855469 3.46875 C 94.960938 3.457031 95.078125 3.4375 95.144531 3.574219 C 95.15625 3.605469 95.253906 3.601562 95.3125 3.609375 C 95.355469 3.617188 95.421875 3.601562 95.445312 3.628906 C 95.570312 3.78125 95.699219 3.871094 95.898438 3.75 C 96.039062 3.660156 96.261719 3.726562 96.347656 3.515625 C 96.363281 3.476562 96.472656 3.4375 96.503906 3.453125 C 96.660156 3.539062 96.804688 3.460938 96.953125 3.464844 C 97.015625 3.46875 97.074219 3.507812 97.132812 3.53125 C 97.039062 3.492188 96.941406 3.488281 96.914062 3.601562 C 96.898438 3.65625 96.914062 3.734375 96.949219 3.773438 C 97.003906 3.824219 97.089844 3.824219 97.15625 3.761719 C 97.199219 3.726562 97.238281 3.695312 97.285156 3.65625 C 97.214844 3.597656 97.167969 3.558594 97.121094 3.519531 C 97.265625 3.523438 97.410156 3.523438 97.554688 3.539062 C 97.726562 3.5625 97.910156 3.570312 98 3.757812 C 98.058594 3.875 98.195312 3.859375 98.242188 3.800781 C 98.402344 3.601562 98.59375 3.621094 98.800781 3.675781 C 98.894531 3.703125 98.992188 3.71875 99.085938 3.742188 C 99.117188 3.816406 99.148438 3.882812 99.183594 3.960938 C 99.3125 3.894531 99.425781 3.84375 99.585938 3.867188 C 100.011719 3.933594 100.445312 3.953125 100.871094 4.011719 C 101.042969 4.03125 101.214844 4.09375 101.378906 4.152344 C 101.714844 4.273438 102.042969 4.390625 102.402344 4.429688 C 102.832031 4.476562 103.21875 4.664062 103.601562 4.851562 C 104.089844 5.089844 104.585938 5.300781 105.101562 5.472656 C 105.265625 5.527344 105.4375 5.53125 105.570312 5.6875 C 105.625 5.753906 105.777344 5.757812 105.882812 5.765625 C 106.015625 5.777344 106.140625 5.757812 106.269531 5.765625 C 106.332031 5.765625 106.425781 5.78125 106.445312 5.820312 C 106.566406 6.078125 106.851562 6.109375 107.050781 6.25 C 107.488281 6.570312 107.964844 6.828125 108.480469 7.011719 C 108.847656 7.140625 109.15625 7.367188 109.472656 7.585938 C 109.800781 7.8125 110.050781 8.085938 110.265625 8.402344 C 110.292969 8.441406 110.339844 8.476562 110.347656 8.515625 C 110.433594 8.988281 110.847656 9.242188 111.09375 9.601562 C 111.347656 9.96875 111.640625 10.304688 111.890625 10.664062 C 111.996094 10.816406 112.121094 10.976562 112.082031 11.195312 C 112.066406 11.265625 112.101562 11.351562 112.128906 11.421875 C 112.332031 11.890625 112.320312 12.382812 112.296875 12.875 C 112.292969 13 112.257812 13.125 112.222656 13.25 C 112.179688 13.382812 112.121094 13.515625 112.074219 13.648438 C 111.898438 14.1875 111.582031 14.609375 111.054688 14.859375 C 110.953125 14.90625 110.871094 14.984375 110.773438 15.042969 C 110.707031 15.082031 110.632812 15.136719 110.558594 15.140625 C 110.03125 15.164062 109.523438 15.324219 109.003906 15.390625 C 108.988281 15.390625 108.96875 15.402344 108.957031 15.398438 C 108.554688 15.261719 108.136719 15.328125 107.734375 15.273438 C 107.242188 15.203125 106.761719 15.097656 106.234375 15 C 106.039062 14.777344 105.777344 14.574219 105.421875 14.53125 C 105.382812 14.523438 105.320312 14.492188 105.308594 14.453125 C 105.214844 14.226562 104.996094 14.203125 104.800781 14.140625 C 104.523438 14.054688 104.242188 13.988281 104.019531 13.78125 C 103.96875 13.730469 103.882812 13.703125 103.804688 13.683594 C 103.480469 13.585938 103.167969 13.46875 102.890625 13.273438 C 102.765625 13.179688 102.605469 13.132812 102.449219 13.082031 C 102.058594 12.953125 101.667969 12.808594 101.25 12.78125 C 100.847656 12.753906 100.453125 12.71875 100.046875 12.742188 C 99.644531 12.765625 99.242188 12.742188 98.855469 12.828125 C 98.773438 12.914062 98.695312 12.992188 98.625 13.078125 C 98.523438 13.203125 98.523438 13.304688 98.65625 13.40625 C 98.875 13.566406 99.089844 13.734375 99.328125 13.859375 C 100.011719 14.222656 100.703125 14.558594 101.390625 14.90625 C 101.503906 14.964844 101.609375 15.039062 101.722656 15.097656 C 102.011719 15.242188 102.296875 15.386719 102.585938 15.523438 C 102.726562 15.585938 102.894531 15.59375 103 15.738281 C 103.042969 15.796875 103.140625 15.820312 103.214844 15.835938 C 103.746094 15.9375 104.1875 16.234375 104.664062 16.453125 C 104.691406 16.46875 104.710938 16.507812 104.738281 16.515625 C 105.066406 16.59375 105.351562 16.773438 105.652344 16.898438 C 105.753906 16.945312 105.871094 16.960938 105.957031 17.019531 C 106.132812 17.136719 106.292969 17.273438 106.523438 17.210938 C 106.5625 17.203125 106.621094 17.226562 106.660156 17.25 C 107.15625 17.5 107.675781 17.710938 108.121094 18.0625 C 108.332031 18.226562 108.582031 18.34375 108.804688 18.5 C 108.996094 18.632812 109.203125 18.746094 109.351562 18.949219 C 109.480469 19.125 109.707031 19.21875 109.828125 19.429688 C 109.917969 19.585938 110.105469 19.683594 110.246094 19.8125 C 110.308594 19.863281 110.382812 19.914062 110.414062 19.980469 C 110.707031 20.605469 111.167969 21.171875 111.203125 21.898438 C 111.246094 22.71875 111.160156 23.5 110.582031 24.175781 C 110.265625 24.546875 109.867188 24.703125 109.433594 24.8125 C 109.003906 24.921875 108.566406 25.007812 108.125 25.046875 C 107.980469 25.0625 107.839844 25.054688 107.695312 25.050781 C 107.332031 25.03125 106.964844 25.085938 106.59375 25.023438 C 106.425781 24.992188 106.246094 25.03125 106.074219 25.046875 C 105.796875 25.078125 105.527344 25.09375 105.257812 25.03125 C 105.105469 25 104.941406 25.011719 104.78125 24.988281 C 104.292969 24.921875 103.800781 24.851562 103.304688 24.78125 C 103.148438 24.757812 102.988281 24.75 102.835938 24.726562 C 102.492188 24.671875 102.148438 24.609375 101.804688 24.542969 C 101.761719 24.535156 101.707031 24.523438 101.683594 24.492188 C 101.558594 24.351562 101.429688 24.328125 101.253906 24.398438 C 101.148438 24.4375 101.023438 24.382812 100.953125 24.289062 C 100.882812 24.1875 100.78125 24.140625 100.671875 24.121094 C 100.378906 24.070312 100.183594 23.910156 100.070312 23.640625 C 100.058594 23.601562 100.003906 23.578125 99.945312 23.527344 C 99.898438 23.554688 99.847656 23.582031 99.796875 23.609375 C 99.660156 23.675781 99.542969 23.675781 99.511719 23.570312 C 99.453125 23.359375 99.273438 23.328125 99.128906 23.234375 C 99.035156 23.179688 98.914062 23.15625 98.832031 23.085938 C 98.355469 22.660156 97.730469 22.441406 97.265625 22 C 97.230469 21.96875 97.179688 21.960938 97.105469 21.929688 C 97.0625 22.015625 97.023438 22.097656 96.984375 22.179688 Z M 96.992188 22.1875 "/>
<path style=" stroke:none;fill-rule:evenodd;fill:rgb(87.058824%,85.882353%,84.313725%);fill-opacity:1;" d="M 55.792969 21.695312 C 56.011719 21.429688 56.253906 21.1875 56.496094 20.945312 C 56.9375 20.496094 57.363281 20.03125 57.644531 19.4375 C 57.847656 19.027344 58.050781 18.609375 58.324219 18.234375 C 58.464844 18.046875 58.539062 17.8125 58.550781 17.582031 C 58.570312 17.148438 58.5625 16.714844 58.566406 16.3125 C 58.351562 15.8125 58.078125 15.398438 57.636719 15.160156 C 57.0625 14.847656 56.496094 14.515625 55.859375 14.320312 C 55.234375 14.132812 54.589844 14.023438 53.960938 13.828125 C 52.792969 13.457031 51.566406 13.34375 50.378906 13.054688 C 50.269531 13.027344 50.152344 13.015625 50.039062 13.015625 C 49.382812 12.984375 48.746094 12.839844 48.105469 12.691406 C 47.550781 12.5625 46.996094 12.429688 46.441406 12.292969 C 45.640625 12.09375 44.824219 11.96875 44.007812 11.859375 C 43.359375 11.765625 42.703125 11.742188 42.074219 11.523438 C 41.617188 11.492188 41.195312 11.316406 40.75 11.144531 C 40.457031 11.125 40.230469 11.117188 40.003906 11.09375 C 39.773438 11.070312 39.5625 10.992188 39.351562 10.894531 C 39.25 10.847656 39.132812 10.828125 39.023438 10.8125 C 37.726562 10.644531 36.445312 10.34375 35.136719 10.257812 C 33.941406 10.179688 32.761719 9.976562 31.585938 9.765625 C 30.324219 9.546875 29.0625 9.328125 27.796875 9.125 C 26.84375 8.972656 25.890625 8.796875 24.9375 8.617188 C 24.265625 8.484375 23.589844 8.40625 22.90625 8.371094 C 21.96875 8.328125 21.027344 8.269531 20.101562 8.101562 C 18.953125 7.890625 17.792969 7.765625 16.628906 7.707031 C 16.144531 7.683594 15.664062 7.652344 15.183594 7.570312 C 14.707031 7.492188 14.226562 7.421875 13.75 7.367188 C 13.210938 7.300781 12.671875 7.230469 12.136719 7.210938 C 11.394531 7.171875 10.660156 7.101562 9.933594 6.953125 C 9.179688 6.796875 8.425781 6.636719 7.667969 6.515625 C 6.742188 6.359375 5.808594 6.242188 4.871094 6.210938 C 4.558594 6.199219 4.246094 6.230469 3.933594 6.265625 C 3.617188 6.304688 3.3125 6.414062 3.082031 6.636719 C 2.730469 6.976562 2.398438 7.332031 2.082031 7.703125 C 1.839844 7.988281 1.648438 8.320312 1.414062 8.609375 C 1.082031 9.015625 0.828125 9.460938 0.742188 9.835938 C 0.632812 10.765625 0.710938 11.546875 0.792969 12.328125 C 0.816406 12.554688 0.808594 12.789062 0.804688 13.023438 C 0.800781 13.546875 0.792969 14.070312 0.980469 14.570312 C 1.039062 14.734375 1.070312 14.914062 1.074219 15.082031 C 1.09375 15.5625 1.253906 15.996094 1.449219 16.414062 C 1.632812 16.8125 1.757812 17.226562 1.886719 17.625 C 1.882812 17.816406 1.878906 17.988281 1.875 18.117188 C 1.960938 18.453125 2.164062 18.664062 2.328125 18.867188 C 2.566406 19.976562 3.0625 20.960938 3.445312 21.964844 C 3.574219 22.117188 3.6875 22.25 3.8125 22.394531 C 3.90625 22.648438 4.011719 22.921875 4.105469 23.167969 C 4.300781 23.445312 4.484375 23.703125 4.679688 23.96875 C 4.867188 24.132812 5.089844 24.273438 5.253906 24.46875 C 5.550781 24.816406 5.835938 25.179688 6.179688 25.480469 C 6.199219 25.492188 6.191406 25.53125 6.195312 25.554688 C 6.179688 25.703125 5.886719 25.628906 5.96875 25.867188 C 6.207031 26.09375 6.453125 26.332031 6.777344 26.46875 C 6.933594 26.535156 7.082031 26.632812 7.214844 26.742188 C 7.554688 27.007812 7.941406 27.1875 8.347656 27.335938 C 8.535156 27.402344 8.722656 27.464844 8.917969 27.515625 C 9.445312 27.660156 9.949219 27.84375 10.347656 28.25 C 10.425781 28.328125 10.527344 28.398438 10.628906 28.445312 C 11.277344 28.742188 11.894531 29.105469 12.566406 29.34375 C 12.945312 29.476562 13.308594 29.640625 13.675781 29.796875 C 13.78125 29.84375 13.898438 29.882812 13.976562 29.960938 C 14.242188 30.210938 14.574219 30.289062 14.882812 30.378906 C 15 30.492188 15.101562 30.59375 15.234375 30.722656 C 15.660156 30.929688 16.121094 31.15625 16.574219 31.382812 C 17.269531 31.464844 17.910156 31.679688 18.554688 31.933594 C 19.539062 32.316406 20.558594 32.589844 21.59375 32.78125 C 22.519531 32.953125 23.429688 33.171875 24.308594 33.523438 C 25 33.800781 25.71875 33.96875 26.457031 34.054688 C 26.90625 34.109375 27.359375 34.140625 27.8125 34.1875 C 28.550781 34.265625 29.253906 34.503906 29.980469 34.640625 C 30.429688 34.71875 30.867188 34.828125 31.324219 34.886719 C 32.113281 34.988281 32.898438 35.101562 33.699219 35.125 C 34.097656 35.132812 34.488281 35.167969 34.886719 35.101562 C 35.027344 35.078125 35.171875 35.074219 35.3125 35.09375 C 36.210938 35.234375 36.605469 35.195312 37.488281 34.867188 C 37.542969 34.847656 37.601562 34.84375 37.65625 34.828125 C 38.128906 34.71875 38.585938 34.570312 39.042969 34.402344 C 39.523438 34.226562 39.992188 34.015625 40.476562 33.84375 C 41.015625 33.648438 41.539062 33.429688 42.03125 33.140625 C 42.183594 33.054688 42.335938 32.972656 42.5 32.921875 C 42.910156 32.796875 43.273438 32.5625 43.667969 32.390625 C 44.21875 32.140625 44.722656 31.828125 45.046875 31.464844 C 45.394531 31.242188 45.652344 31.117188 45.871094 30.929688 C 46.101562 30.734375 46.398438 30.71875 46.636719 30.554688 C 47.136719 30.226562 47.644531 29.90625 48.160156 29.59375 C 48.402344 29.445312 48.582031 29.210938 48.859375 29.101562 C 49.152344 28.984375 49.378906 28.765625 49.605469 28.535156 C 49.925781 28.210938 50.265625 27.898438 50.609375 27.59375 C 50.914062 27.328125 51.191406 27.046875 51.449219 26.734375 C 51.667969 26.46875 51.898438 26.210938 52.136719 25.960938 C 52.554688 25.53125 52.960938 25.09375 53.265625 24.5625 C 53.378906 24.367188 53.546875 24.203125 53.664062 24.0625 C 53.84375 23.992188 53.972656 23.9375 54.117188 23.882812 C 54.269531 23.539062 54.496094 23.242188 54.738281 22.957031 C 55.09375 22.539062 55.445312 22.121094 55.792969 21.695312 M 12.929688 18.671875 C 12.726562 18.890625 12.496094 19.128906 12.140625 19.28125 C 11.96875 19.3125 11.742188 19.351562 11.523438 19.382812 C 11.355469 19.34375 11.339844 19.167969 11.121094 19.03125 C 11.035156 19.007812 10.835938 18.949219 10.636719 18.890625 C 10.4375 18.59375 10.296875 18.269531 10.199219 17.929688 C 10.132812 17.453125 10.335938 17.046875 10.539062 16.648438 C 10.652344 16.417969 10.804688 16.207031 10.9375 16 C 11.515625 15.632812 12.136719 15.464844 12.871094 15.433594 C 13.605469 15.488281 14.140625 15.882812 14.308594 16.878906 C 14.308594 17.046875 14.3125 17.28125 14.316406 17.53125 C 14.054688 18.132812 13.515625 18.40625 12.929688 18.671875 M 21.167969 14.882812 C 20.929688 14.96875 20.699219 15.074219 20.445312 15.175781 C 19.777344 15.296875 19.089844 15.292969 18.429688 15.335938 C 18.113281 15.15625 17.832031 15 17.539062 14.832031 C 17.40625 14.695312 17.402344 14.503906 17.378906 14.367188 C 17.441406 14.023438 17.496094 13.722656 17.574219 13.28125 C 17.71875 12.8125 17.980469 12.234375 18.253906 11.65625 C 18.53125 11.527344 18.804688 11.398438 19.058594 11.28125 C 19.289062 11.230469 19.488281 11.257812 19.679688 11.359375 C 19.886719 11.46875 20.097656 11.566406 20.359375 11.695312 C 20.480469 11.816406 20.648438 11.980469 20.734375 12.066406 C 21.042969 12.257812 21.261719 12.382812 21.476562 12.523438 C 21.742188 12.703125 21.894531 12.960938 21.964844 13.273438 C 22.015625 13.476562 22.039062 13.6875 22.078125 13.9375 C 21.914062 14.425781 21.613281 14.726562 21.167969 14.882812 M 21.296875 21.929688 C 21.144531 22.03125 20.984375 22.128906 20.816406 22.207031 C 20.566406 22.328125 20.308594 22.433594 20.058594 22.546875 C 19.601562 22.613281 19.152344 22.730469 18.710938 22.71875 C 18.53125 22.625 18.46875 22.472656 18.386719 22.289062 C 18.402344 21.886719 18.320312 21.476562 18.035156 21.160156 C 17.929688 20.625 18.109375 20.160156 18.234375 19.703125 C 18.53125 19.328125 18.933594 19.140625 19.320312 18.929688 C 19.398438 18.882812 19.496094 18.871094 19.585938 18.851562 C 19.742188 18.820312 19.902344 18.808594 20.0625 18.773438 C 20.191406 18.742188 20.320312 18.679688 20.4375 18.640625 C 21.011719 18.734375 21.390625 19.128906 21.84375 19.480469 C 21.910156 19.609375 21.996094 19.777344 22.078125 19.9375 C 22.082031 20.117188 22.09375 20.28125 22.089844 20.445312 C 22.082031 21.078125 21.820312 21.578125 21.296875 21.929688 M 25.691406 20.398438 C 25.660156 19.882812 25.890625 19.402344 26.003906 18.851562 C 25.984375 18.757812 25.945312 18.625 25.917969 18.503906 C 25.917969 18.417969 25.90625 18.34375 25.929688 18.277344 C 25.972656 18.144531 26.03125 18.015625 26.070312 17.921875 C 26.132812 17.863281 26.164062 17.824219 26.203125 17.804688 C 26.496094 17.65625 26.789062 17.523438 27.078125 17.375 C 27.261719 17.277344 27.445312 17.175781 27.660156 17.171875 C 27.726562 17.167969 27.789062 17.121094 27.847656 17.085938 C 28.042969 16.960938 28.253906 16.96875 28.449219 17.035156 C 29.0625 17.230469 29.59375 17.542969 29.917969 18.140625 C 30.066406 18.785156 29.945312 19.367188 29.453125 19.992188 C 29.390625 20.054688 29.226562 20.21875 29.085938 20.359375 C 28.253906 20.660156 27.445312 20.859375 26.640625 21 C 26.238281 20.933594 25.929688 20.75 25.691406 20.398438 M 27.5625 27.335938 C 27.507812 27.378906 27.457031 27.425781 27.386719 27.484375 C 26.855469 27.65625 26.324219 27.90625 25.6875 27.914062 C 25.546875 27.828125 25.367188 27.722656 25.191406 27.617188 C 25.011719 27.507812 24.773438 27.570312 24.589844 27.398438 C 24.472656 27.125 24.488281 26.820312 24.515625 26.492188 C 24.425781 26.382812 24.320312 26.257812 24.210938 26.117188 C 24.179688 25.996094 24.144531 25.859375 24.109375 25.726562 C 24.003906 25.632812 23.902344 25.539062 23.777344 25.433594 C 23.800781 24.976562 24.117188 24.699219 24.167969 24.34375 C 24.269531 24.238281 24.347656 24.152344 24.457031 24.039062 C 24.507812 23.898438 24.574219 23.71875 24.644531 23.523438 C 25.179688 23.179688 25.691406 22.765625 26.332031 22.609375 C 26.59375 22.625 26.847656 22.636719 27.074219 22.648438 C 27.355469 22.78125 27.605469 22.898438 27.90625 23.039062 C 28.097656 23.242188 28.320312 23.480469 28.53125 23.710938 C 28.640625 23.910156 28.742188 24.097656 28.839844 24.28125 C 28.863281 24.421875 28.890625 24.5625 28.914062 24.695312 C 28.90625 24.75 28.90625 24.796875 28.894531 24.84375 C 28.828125 25.09375 28.746094 25.34375 28.6875 25.59375 C 28.515625 26.3125 28.136719 26.890625 27.5625 27.335938 M 33.625 19.929688 C 33.582031 19.820312 33.558594 19.695312 33.496094 19.605469 C 33.28125 19.3125 33.203125 18.96875 33.113281 18.625 C 33.078125 18.484375 33.070312 18.351562 33.109375 18.210938 C 33.136719 18.101562 33.109375 17.976562 33.105469 17.757812 C 33.164062 17.613281 33.230469 17.441406 33.289062 17.296875 C 33.769531 16.867188 34.324219 16.71875 34.9375 16.601562 C 35.199219 16.617188 35.496094 16.632812 35.808594 16.648438 C 36.089844 16.585938 36.382812 16.515625 36.65625 16.453125 C 37.230469 16.648438 37.300781 16.695312 37.925781 17.242188 C 38.042969 17.65625 38.144531 18.085938 38.007812 18.5625 C 37.828125 18.8125 37.636719 19.082031 37.453125 19.34375 C 37.386719 19.390625 37.328125 19.425781 37.277344 19.472656 C 36.730469 19.972656 36.035156 20.074219 35.351562 20.195312 C 35.125 20.238281 34.890625 20.203125 34.640625 20.207031 C 34.4375 20.273438 34.21875 20.34375 34.007812 20.410156 C 33.953125 20.390625 33.910156 20.371094 33.871094 20.355469 C 33.757812 20.234375 33.6875 20.085938 33.625 19.929688 M 33.828125 26.074219 C 33.589844 26 33.34375 25.988281 33.085938 26.046875 C 32.960938 26.070312 32.820312 26.007812 32.703125 25.992188 C 32.492188 25.796875 32.304688 25.625 32.113281 25.453125 C 32.019531 25.292969 31.925781 25.128906 31.824219 24.953125 C 31.765625 24.695312 31.699219 24.417969 31.640625 24.164062 C 31.65625 23.945312 31.757812 23.789062 31.855469 23.625 C 32.070312 23.257812 32.28125 22.890625 32.324219 22.453125 C 32.332031 22.386719 32.382812 22.324219 32.421875 22.234375 C 32.800781 21.84375 33.28125 21.726562 33.808594 21.867188 C 34.210938 21.976562 34.601562 22.125 34.992188 22.273438 C 35.351562 22.421875 35.621094 22.675781 35.753906 23.054688 C 35.792969 23.167969 35.832031 23.28125 35.878906 23.417969 C 35.859375 23.796875 35.84375 24.125 35.828125 24.398438 C 35.472656 25.398438 34.746094 25.84375 33.828125 26.074219 M 42.765625 18.902344 C 42.636719 18.679688 42.542969 18.4375 42.433594 18.195312 C 42.371094 17.78125 42.308594 17.363281 42.25 16.976562 C 42.289062 16.6875 42.324219 16.429688 42.363281 16.164062 C 42.5 15.890625 42.730469 15.695312 42.988281 15.472656 C 43.3125 15.375 43.667969 15.28125 44.023438 15.171875 C 44.445312 15.042969 44.847656 15.101562 45.226562 15.320312 C 45.367188 15.40625 45.5 15.5 45.640625 15.59375 C 45.816406 15.949219 46.117188 16.234375 46.222656 16.71875 C 46.214844 17 46.210938 17.351562 46.191406 17.703125 C 46.183594 17.84375 46.152344 17.984375 46.113281 18.117188 C 45.898438 18.878906 45.394531 19.367188 44.699219 19.664062 C 44.347656 19.6875 44.003906 19.703125 43.644531 19.71875 C 43.5 19.664062 43.351562 19.609375 43.199219 19.550781 C 43.050781 19.328125 42.890625 19.125 42.765625 18.902344 M 43.492188 25.820312 C 43.328125 25.859375 43.171875 25.890625 43.019531 25.949219 C 42.890625 25.996094 42.773438 26.078125 42.605469 26.164062 C 42.460938 26.125 42.351562 26.09375 42.246094 26.0625 C 42.152344 25.9375 42.070312 25.824219 41.992188 25.71875 C 41.847656 25.628906 41.710938 25.546875 41.601562 25.476562 C 41.503906 25.28125 41.417969 25.109375 41.335938 24.945312 C 41.261719 24.796875 41.191406 24.648438 41.148438 24.570312 C 41.105469 24.210938 41.058594 23.929688 41.039062 23.648438 C 41.019531 23.390625 41.019531 23.125 41.027344 22.867188 C 41.039062 22.652344 41.117188 22.453125 41.257812 22.285156 C 41.625 22.101562 42.003906 22.046875 42.40625 22.109375 C 42.636719 22.148438 42.867188 22.15625 43.132812 22.179688 C 43.183594 22.210938 43.285156 22.238281 43.34375 22.304688 C 43.785156 22.75 44.292969 23.136719 44.675781 23.648438 C 44.6875 23.667969 44.699219 23.6875 44.71875 23.722656 C 44.804688 23.964844 44.761719 24.222656 44.753906 24.34375 C 44.578125 25.179688 44.0625 25.53125 43.492188 25.820312 "/>
<path style=" stroke:none;fill-rule:evenodd;fill:rgb(87.058824%,85.882353%,84.313725%);fill-opacity:1;" d="M 237.847656 22.601562 C 237.867188 22.742188 237.925781 22.851562 237.96875 22.960938 C 238.15625 23.398438 238.308594 23.855469 238.457031 24.3125 C 238.648438 24.914062 238.847656 25.507812 239.035156 26.109375 C 239.105469 26.324219 239.164062 26.542969 239.226562 26.757812 C 239.457031 27.5625 239.71875 28.359375 240.003906 29.144531 C 240.148438 29.539062 240.25 29.953125 240.371094 30.359375 C 240.417969 30.523438 240.421875 30.691406 240.402344 30.863281 C 240.390625 30.953125 240.398438 31.046875 240.398438 31.148438 C 240.328125 31.21875 240.273438 31.316406 240.191406 31.359375 C 239.972656 31.460938 239.746094 31.550781 239.496094 31.445312 C 239.417969 31.414062 239.339844 31.390625 239.257812 31.375 C 239.132812 31.351562 239.03125 31.289062 238.941406 31.203125 C 238.832031 31.09375 238.726562 30.972656 238.597656 30.875 C 238.320312 30.660156 238.105469 30.390625 237.902344 30.109375 C 237.714844 29.851562 237.542969 29.578125 237.363281 29.320312 C 237.269531 29.179688 237.171875 29.039062 237.0625 28.90625 C 236.867188 28.675781 236.722656 28.414062 236.613281 28.132812 C 236.535156 27.941406 236.429688 27.765625 236.3125 27.59375 C 235.996094 27.117188 235.738281 26.601562 235.535156 26.0625 C 235.476562 25.898438 235.453125 25.71875 235.371094 25.558594 C 235.332031 25.484375 235.289062 25.414062 235.253906 25.351562 C 235.152344 25.355469 235.125 25.417969 235.097656 25.476562 C 234.929688 25.816406 234.761719 26.148438 234.601562 26.492188 C 234.421875 26.875 234.238281 27.253906 234.023438 27.617188 C 233.816406 27.953125 233.628906 28.304688 233.433594 28.644531 C 233.097656 29.234375 232.707031 29.78125 232.292969 30.320312 C 232.035156 30.664062 231.757812 30.996094 231.484375 31.328125 C 231.246094 31.609375 230.976562 31.851562 230.664062 32.054688 C 230.578125 32.105469 230.492188 32.164062 230.402344 32.210938 C 230.296875 32.265625 230.179688 32.304688 230.066406 32.351562 C 230.03125 32.3125 230.011719 32.257812 229.976562 32.25 C 229.941406 32.242188 229.886719 32.265625 229.855469 32.289062 C 229.8125 32.324219 229.789062 32.378906 229.761719 32.414062 C 229.628906 32.382812 229.53125 32.355469 229.417969 32.328125 C 229.394531 32.1875 229.359375 32.039062 229.25 31.921875 C 229.21875 31.945312 229.183594 31.976562 229.136719 32.007812 C 229.035156 31.96875 229.054688 31.851562 228.996094 31.78125 C 228.945312 31.769531 228.882812 31.765625 228.847656 31.734375 C 228.8125 31.703125 228.785156 31.636719 228.785156 31.585938 C 228.785156 31.480469 228.792969 31.375 228.816406 31.277344 C 229.003906 30.46875 229.078125 29.640625 229.222656 28.828125 C 229.253906 28.640625 229.285156 28.460938 229.382812 28.292969 C 229.402344 28.261719 229.414062 28.226562 229.425781 28.1875 C 229.511719 27.910156 229.597656 27.632812 229.683594 27.355469 C 229.695312 27.320312 229.707031 27.277344 229.734375 27.257812 C 229.839844 27.195312 229.875 27.089844 229.914062 26.984375 C 229.917969 26.964844 229.925781 26.945312 229.9375 26.929688 C 230.15625 26.585938 230.234375 26.183594 230.335938 25.792969 C 230.386719 25.585938 230.472656 25.40625 230.59375 25.234375 C 230.667969 25.140625 230.730469 25.039062 230.789062 24.941406 C 230.742188 24.875 230.710938 24.914062 230.691406 24.9375 C 230.105469 25.585938 229.460938 26.167969 228.824219 26.765625 C 228.183594 27.363281 227.515625 27.9375 226.777344 28.417969 C 226.601562 28.53125 226.441406 28.65625 226.273438 28.773438 C 225.871094 29.046875 225.449219 29.289062 224.976562 29.414062 C 224.78125 29.46875 224.613281 29.546875 224.453125 29.671875 C 224.199219 29.867188 223.898438 29.980469 223.601562 30.085938 C 223.546875 30.109375 223.488281 30.117188 223.441406 30.140625 C 223.316406 30.207031 223.199219 30.210938 223.070312 30.136719 C 222.988281 30.085938 222.878906 30.078125 222.78125 30.046875 C 222.734375 30.03125 222.691406 29.992188 222.632812 29.953125 C 222.695312 29.898438 222.746094 29.867188 222.820312 29.808594 C 222.664062 29.773438 222.535156 29.746094 222.390625 29.71875 C 222.414062 29.675781 222.429688 29.65625 222.441406 29.632812 C 222.484375 29.515625 222.480469 29.46875 222.386719 29.390625 C 222.324219 29.34375 222.28125 29.289062 222.285156 29.203125 C 222.292969 29.085938 222.277344 28.957031 222.3125 28.84375 C 222.355469 28.695312 222.347656 28.546875 222.332031 28.398438 C 222.308594 28.117188 222.359375 27.859375 222.484375 27.609375 C 222.628906 27.3125 222.753906 27.011719 222.949219 26.742188 C 223.015625 26.644531 223.042969 26.515625 223.109375 26.417969 C 223.171875 26.320312 223.285156 26.246094 223.347656 26.144531 C 223.492188 25.90625 223.695312 25.730469 223.886719 25.539062 C 224.296875 25.125 224.738281 24.75 225.175781 24.367188 C 225.585938 24 225.976562 23.609375 226.363281 23.210938 C 226.992188 22.5625 227.679688 21.984375 228.449219 21.515625 C 228.582031 21.433594 228.710938 21.335938 228.84375 21.25 C 229.113281 21.0625 229.382812 20.878906 229.652344 20.691406 C 229.703125 20.65625 229.753906 20.613281 229.808594 20.570312 C 229.777344 20.554688 229.757812 20.539062 229.746094 20.546875 C 229.355469 20.710938 228.960938 20.882812 228.566406 21.050781 C 228.535156 21.066406 228.5 21.085938 228.46875 21.105469 C 227.859375 21.476562 227.21875 21.773438 226.566406 22.054688 C 226.082031 22.265625 225.574219 22.429688 225.074219 22.609375 C 224.828125 22.703125 224.582031 22.78125 224.335938 22.871094 C 223.855469 23.054688 223.359375 23.179688 222.851562 23.246094 C 222.445312 23.296875 222.035156 23.34375 221.628906 23.390625 C 221.558594 23.398438 221.480469 23.386719 221.410156 23.367188 C 221.324219 23.351562 221.242188 23.351562 221.164062 23.390625 C 220.824219 23.578125 220.480469 23.539062 220.132812 23.4375 C 220.015625 23.40625 219.898438 23.367188 219.785156 23.324219 C 219.730469 23.300781 219.65625 23.296875 219.640625 23.210938 C 219.636719 23.191406 219.601562 23.164062 219.582031 23.160156 C 219.421875 23.125 219.328125 23.007812 219.230469 22.894531 C 219.179688 22.835938 219.132812 22.785156 219.050781 22.78125 C 218.945312 22.769531 218.910156 22.652344 218.824219 22.625 C 218.640625 22.554688 218.601562 22.417969 218.605469 22.242188 C 218.605469 22.179688 218.59375 22.117188 218.589844 22.050781 C 218.582031 21.984375 218.574219 21.925781 218.527344 21.867188 C 218.472656 21.804688 218.449219 21.71875 218.503906 21.632812 C 218.53125 21.585938 218.488281 21.550781 218.46875 21.507812 C 218.460938 21.492188 218.46875 21.445312 218.480469 21.445312 C 218.601562 21.398438 218.53125 21.28125 218.578125 21.210938 C 218.546875 21.195312 218.515625 21.179688 218.464844 21.152344 C 218.492188 21.085938 218.519531 21.015625 218.546875 20.949219 C 218.542969 20.933594 218.542969 20.90625 218.53125 20.898438 C 218.40625 20.765625 218.410156 20.601562 218.421875 20.445312 C 218.425781 20.378906 218.472656 20.304688 218.515625 20.25 C 218.730469 19.96875 219.007812 19.757812 219.292969 19.5625 C 219.386719 19.5 219.488281 19.453125 219.585938 19.394531 C 219.695312 19.328125 219.804688 19.25 219.949219 19.289062 C 219.953125 19.289062 219.964844 19.289062 219.976562 19.289062 C 220.207031 19.246094 220.417969 19.148438 220.632812 19.0625 C 220.636719 18.976562 220.683594 18.933594 220.753906 18.914062 C 220.828125 18.890625 220.898438 18.875 220.972656 18.851562 C 221.109375 18.816406 221.214844 18.726562 221.335938 18.652344 C 221.863281 18.3125 222.414062 18.023438 223.03125 17.882812 C 223.867188 17.6875 224.695312 17.472656 225.527344 17.265625 C 226.085938 17.121094 226.644531 16.96875 227.203125 16.820312 C 227.246094 16.808594 227.285156 16.796875 227.328125 16.78125 C 227.3125 16.75 227.308594 16.726562 227.292969 16.71875 C 226.777344 16.484375 226.339844 16.132812 225.9375 15.738281 C 225.8125 15.617188 225.683594 15.515625 225.5 15.515625 C 225.492188 15.453125 225.496094 15.390625 225.472656 15.34375 C 225.449219 15.296875 225.394531 15.265625 225.351562 15.226562 C 225.28125 15.167969 225.203125 15.117188 225.140625 15.046875 C 224.921875 14.8125 224.636719 14.667969 224.398438 14.453125 C 224.367188 14.425781 224.3125 14.40625 224.292969 14.367188 C 224.179688 14.125 223.925781 14.03125 223.761719 13.84375 C 223.722656 13.804688 223.664062 13.78125 223.632812 13.738281 C 223.453125 13.492188 223.222656 13.308594 222.976562 13.140625 C 222.945312 13.117188 222.921875 13.101562 222.929688 13.050781 C 222.9375 12.996094 222.894531 12.96875 222.84375 12.964844 C 222.660156 12.933594 222.550781 12.773438 222.398438 12.6875 C 222.371094 12.667969 222.363281 12.578125 222.371094 12.53125 C 222.398438 12.398438 222.433594 12.273438 222.472656 12.148438 C 222.507812 12.046875 222.5 11.949219 222.472656 11.84375 C 222.4375 11.71875 222.410156 11.589844 222.378906 11.460938 C 222.378906 11.453125 222.378906 11.445312 222.375 11.414062 C 222.453125 11.351562 222.457031 11.265625 222.433594 11.148438 C 222.410156 11.015625 222.429688 10.875 222.429688 10.722656 C 222.496094 10.730469 222.566406 10.738281 222.636719 10.746094 C 222.644531 10.730469 222.660156 10.710938 222.65625 10.703125 C 222.613281 10.589844 222.566406 10.476562 222.519531 10.367188 C 222.492188 10.304688 222.441406 10.265625 222.382812 10.234375 C 222.230469 10.148438 222.207031 10.070312 222.269531 9.910156 C 222.304688 9.8125 222.355469 9.722656 222.410156 9.617188 C 222.5 9.601562 222.601562 9.597656 222.695312 9.570312 C 222.808594 9.539062 222.824219 9.421875 222.859375 9.34375 C 222.976562 9.335938 223.074219 9.328125 223.175781 9.328125 C 223.480469 9.324219 223.785156 9.257812 224.089844 9.242188 C 224.375 9.226562 224.664062 9.28125 224.953125 9.304688 C 225.011719 9.308594 225.054688 9.328125 225.089844 9.382812 C 225.210938 9.539062 225.367188 9.617188 225.558594 9.648438 C 225.703125 9.671875 225.84375 9.734375 225.980469 9.796875 C 226.269531 9.929688 226.554688 10.0625 226.859375 10.15625 C 226.980469 10.195312 227.089844 10.277344 227.207031 10.332031 C 227.734375 10.574219 228.214844 10.898438 228.691406 11.226562 C 228.730469 11.257812 228.761719 11.289062 228.804688 11.328125 C 228.785156 11.355469 228.769531 11.382812 228.742188 11.421875 C 228.851562 11.554688 228.992188 11.648438 229.140625 11.714844 C 229.5 11.882812 229.816406 12.109375 230.113281 12.367188 C 230.347656 12.570312 230.585938 12.765625 230.824219 12.960938 C 230.902344 13.023438 230.972656 13.097656 231.066406 13.179688 C 231.105469 13.105469 231.144531 13.054688 231.164062 12.992188 C 231.253906 12.671875 231.40625 12.382812 231.554688 12.089844 C 231.800781 11.59375 232.046875 11.09375 232.316406 10.613281 C 232.886719 9.59375 233.507812 8.609375 234.304688 7.753906 C 234.53125 7.515625 234.765625 7.285156 235.003906 7.058594 C 235.132812 6.9375 235.285156 6.851562 235.457031 6.796875 C 235.582031 6.757812 235.710938 6.71875 235.792969 6.605469 C 235.925781 6.429688 236.101562 6.421875 236.292969 6.484375 C 236.328125 6.492188 236.363281 6.503906 236.398438 6.515625 C 236.488281 6.410156 236.570312 6.3125 236.65625 6.207031 C 236.710938 6.21875 236.757812 6.226562 236.796875 6.242188 C 236.898438 6.28125 236.996094 6.289062 237.097656 6.25 C 237.230469 6.203125 237.355469 6.183594 237.417969 6.355469 C 237.429688 6.378906 237.457031 6.398438 237.480469 6.410156 C 237.675781 6.511719 237.722656 6.710938 237.789062 6.890625 C 237.835938 7.007812 237.835938 7.132812 237.792969 7.25 C 237.757812 7.34375 237.765625 7.429688 237.78125 7.523438 C 237.792969 7.605469 237.816406 7.6875 237.828125 7.773438 C 237.878906 8.089844 237.808594 8.382812 237.675781 8.671875 C 237.480469 9.109375 237.300781 9.554688 237.109375 9.996094 C 236.871094 10.546875 236.613281 11.089844 236.34375 11.625 C 236.21875 11.878906 236.097656 12.132812 235.976562 12.386719 C 235.957031 12.425781 235.945312 12.46875 235.921875 12.554688 C 236.007812 12.515625 236.054688 12.492188 236.097656 12.46875 C 236.414062 12.285156 236.722656 12.09375 237.058594 11.953125 C 237.242188 11.875 237.421875 11.796875 237.601562 11.726562 C 238.042969 11.554688 238.484375 11.375 238.929688 11.203125 C 239.207031 11.097656 239.488281 10.984375 239.769531 10.894531 C 240.230469 10.742188 240.675781 10.546875 241.113281 10.339844 C 241.339844 10.230469 241.5625 10.117188 241.792969 10.007812 C 241.878906 9.96875 241.96875 9.953125 242.054688 9.921875 C 242.464844 9.785156 242.867188 9.644531 243.273438 9.507812 C 243.460938 9.445312 243.644531 9.382812 243.847656 9.441406 C 243.90625 9.457031 243.972656 9.4375 244.027344 9.429688 C 244.113281 9.542969 243.972656 9.554688 243.964844 9.640625 C 244.003906 9.632812 244.035156 9.628906 244.066406 9.625 C 244.261719 9.597656 244.425781 9.648438 244.507812 9.839844 C 244.558594 9.953125 244.671875 9.953125 244.761719 10.019531 C 244.722656 10.265625 244.582031 10.449219 244.441406 10.632812 C 244.402344 10.6875 244.347656 10.730469 244.300781 10.773438 C 244.074219 10.972656 243.886719 11.203125 243.710938 11.449219 C 243.488281 11.765625 243.230469 12.046875 242.964844 12.328125 C 242.703125 12.601562 242.390625 12.8125 242.042969 12.953125 C 241.722656 13.078125 241.457031 13.273438 241.203125 13.492188 C 240.75 13.890625 240.285156 14.265625 239.832031 14.65625 C 239.523438 14.914062 239.222656 15.179688 238.917969 15.445312 C 238.898438 15.460938 238.890625 15.492188 238.867188 15.53125 C 238.917969 15.539062 238.949219 15.546875 238.980469 15.539062 C 239.257812 15.492188 239.535156 15.441406 239.808594 15.402344 C 240.125 15.359375 240.4375 15.328125 240.753906 15.289062 C 241.214844 15.234375 241.679688 15.179688 242.140625 15.125 C 242.160156 15.121094 242.179688 15.117188 242.195312 15.117188 C 242.894531 15.113281 243.589844 15.042969 244.289062 15.078125 C 244.78125 15.097656 245.277344 15.0625 245.773438 15.054688 C 246.21875 15.039062 246.664062 15.039062 247.113281 15.101562 C 247.304688 15.125 247.503906 15.117188 247.699219 15.125 C 247.96875 15.136719 248.238281 15.144531 248.503906 15.171875 C 248.644531 15.179688 248.785156 15.210938 248.914062 15.257812 C 249.175781 15.355469 249.433594 15.460938 249.652344 15.648438 C 249.78125 15.757812 249.929688 15.835938 250.027344 15.976562 C 250.121094 16.113281 250.144531 16.25 250.050781 16.390625 C 249.980469 16.496094 249.898438 16.597656 249.863281 16.726562 C 249.847656 16.785156 249.78125 16.828125 249.734375 16.871094 C 249.648438 16.945312 249.554688 17 249.515625 17.117188 C 249.480469 17.210938 249.394531 17.265625 249.308594 17.300781 C 248.992188 17.4375 248.679688 17.582031 248.355469 17.703125 C 248.191406 17.765625 248.011719 17.78125 247.835938 17.8125 C 247.449219 17.867188 247.070312 17.945312 246.695312 18.066406 C 246.132812 18.246094 245.558594 18.359375 244.988281 18.492188 C 244.613281 18.578125 244.242188 18.664062 243.867188 18.742188 C 243.613281 18.796875 243.355469 18.835938 243.09375 18.859375 C 242.738281 18.890625 242.402344 18.984375 242.050781 19.054688 C 241.667969 19.132812 241.285156 19.203125 240.902344 19.28125 C 240.832031 19.292969 240.765625 19.320312 240.6875 19.34375 C 240.738281 19.46875 240.828125 19.523438 240.910156 19.578125 C 241.726562 20.113281 242.460938 20.757812 243.203125 21.382812 C 243.945312 22 244.675781 22.628906 245.414062 23.246094 C 245.675781 23.460938 245.957031 23.644531 246.226562 23.84375 C 246.609375 24.132812 246.988281 24.421875 247.371094 24.710938 C 247.378906 24.714844 247.390625 24.71875 247.394531 24.726562 C 247.566406 24.933594 247.746094 25.140625 247.910156 25.351562 C 247.980469 25.445312 247.976562 25.550781 247.917969 25.667969 C 247.726562 26.054688 247.394531 26.171875 247.003906 26.195312 C 246.824219 26.203125 246.648438 26.210938 246.472656 26.222656 C 246.171875 26.246094 245.875 26.210938 245.582031 26.164062 C 245.433594 26.144531 245.289062 26.09375 245.144531 26.070312 C 245 26.046875 244.851562 26.015625 244.703125 26.007812 C 244.242188 25.980469 243.804688 25.851562 243.378906 25.683594 C 242.386719 25.292969 241.449219 24.796875 240.554688 24.207031 C 240.023438 23.859375 239.492188 23.507812 238.953125 23.175781 C 238.632812 22.976562 238.300781 22.8125 237.972656 22.632812 C 237.941406 22.617188 237.90625 22.617188 237.847656 22.601562 "/>
</g>
</svg>
